Word,Count
to,31
the,30
is,28
be,17
for,16
a,15
of,13
if,13
,12
it,12
this,11
input,11
that,10
will,10
when,10
by,9
node,8
Check,8
all,8
and,8
children,7
run,7
on,7
NPC,7
with,7
script,7
dialogue,6
in,6
from,6
can,6
as,6
not,6
an,6
ATS,6
should,6
remove,5
check,5
function,5
bounds,5
line,5
Set,5
are,5
name,5
position,5
object,5
The,5
image,4
cause,4
block,4
Run,4
*,4
use,4
up,4
return,4
NPCs,4
at,4
application,4
state,4
file,4
map,4
or,4
here,4
current,4
app,4
called,4
Commands,4
true,4
Within,4
@brief,4
event,4
Initialize,3
only,3
Map,3
done,3
Script,3
you,3
scene,3
Remove,3
references,3
so,3
instantly,3
If,3
We,3
no,3
autorelease,3
Default,3
sprite,3
finished,3
Enter,3
takes,3
scripts,3
passed,3
value,3
sprites,3
first,3
they,3
have,3
Get,3
Lighting,2
Returns,2
until,2
waits,2
This,2
subclasses,2
active,2
set,2
Implement,2
Adds,2
functionality,2
swallowing,2
nodes,2
layers,2
implement,2
used,2
actions,2
must,2
Don't,2
remaining,2
Find,2
needed,2
Empty,2
being,2
interact,2
Process,2
DSPlaces,2
layer,2
\script,\,2
old,2
pointer,2
init,2
vector,2
DEBUG,2
FPS,2
Load,2
externally,2
parameters,2
ScriptManager,2
call,2
(Scripts,2
add,2
AASay,2
tile,2
but,2
blocked,2
await,2
Image,2
needs,2
added,2
input),2
inside,2
require,2
Passed,2
\SimpleAudioEngine,\,2
(can,2
@return,2
\wait,\,2
hold,2
tag,2
child,2
running,2
list,2
'scene',2
entry,2
@param,2
yields,2
path,2
enter,2
which,2
again,2
specify,2
Director,2
mode,2
end,2
now,1
Build,1
\success,\,1
accidental,1
Found,1
repositioning,1
TODO,1
data,1
come,1
\image,\,1
\Transition,\,1
process,1
Subclass,1
gets,1
SimpleAudioEngine::sharedEngine()->resumeBackgroundMusic();,1
disconnected,1
each,1
reset,1
comes,1
_APP_DELEGATE_H_,1
size,1
game,1
'default',1
implementation,1
different,1
1.0/60,1
Cocos2dx,1
duplicates,1
using,1
\this,\,1
Text,1
Music,1
affected,1
Create,1
Removes,1
after,1
terminate,1
Called,1
has,1
every,1
we,1
fileContents,1
cc2dx,1
End,1
\child,\,1
\call,it's\,1
Delete,1
(default,1
UI,1
\Unprocessed,\,1
\stageLabel->setColor(ccc3(17,\,1
code,1
attribs,1
images,1
scriptmanager,1
Whether,1
http://stackoverflow.com/questions/7378902/how-to-efficiently-remove-double-quotes-from-stdstring-if-they-exist,1
buttons,1
\finished,\,1
walk,1
Constants,1
enterDialogueMode();,1
rendertex,1
player,1
currently,1
ones,1
pressed,1
Resets,1
prevents,1
\list,\,1
XXX,1
going,1
All,1
progressing,1
continue,1
real,1
'name',1
out,1
support,1
structure,1
extra,1
z,1
none),1
Otherwise,1
CC_SYNTH,1
warpers,1
(this,1
\update,\,1
NPCs),1
mode),1
lines,1
XBOX_CONTROLLER_State,1
'done',1
one,1
resume,1
DWORD,1
\up),\,1
I.E,1
become,1
there,1
any,1
(map,1
XInputGetState,1
map),1
Instantly,1
Override,1
stop,1
variables,1
expression),1
false,1
interface,1
overload,1
Enable,1
place,1
Internal,1
program,1
default,1
created,1
Application,1
some,1
index,1
allow,1
foreground,1
avoid,1
expression's,1
\result,\,1
store,1
create,1
Vector,1
checking,1
Cleanup,1
into,1
phone,1
with/at/transitions,1
Pull,1
_this,1
finished',1
External,1
able,1
collidable,1
Hold,1
Scene,1
reference,1
load,1
relevant,1
When,1
additional,1
Instantiated,1
Last,1
_blocked,1
properties,1
93));,1
(no,1
keyword,1
occurence,1
allowing,1
SimpleAudioEngine::sharedEngine()->pauseBackgroundMusic();,1
empty,1
mFileContents,1
DisplayName,1
\control,\,1
box,1
'dissolve',1
trigger,1
'with',1
matters,1
they'll,1
FileReader.h,1
don't,1
Update,1
Used,1
Their,1
declared,1
allows,1
invoked,1
waiting,1
unsigned,1
getline(,1
\progress,\,1
holding,1
exploding,1
Pointer,1
Invoke,1
same,1
manager,1
stream,1
bar,1
wait,1
string,1
(I.E,1
Node,1
expressions,1
Overridden,1
(zorder,1
unused/unreferenced,1
inactive,1
something,1
long,1
buffer,1
(should,1
null,1
\atl,ATS\,1
nothing,1
'\x04',1
result,1
showing,1
receive,1
above,1
FileReader.cpp,1
Ternary,1
global,1
Sets,1
loop,1
working,1
Cancels,1
private,1
),1
causing,1
benefit,1
appear,1
too,1
true/unimplemented),1
director,1
reason,1
No,1
supporting,1
Guaranteed,1
displayed),1
Sprite,1
target,1
Add,1
\now,\,1
related,1
inherit,1
expression,1
controller,1
etc,1
coord,1
order,1
note,1
Put,1
destroyed,1
ATSNode,1
bottom,1
spawns,1
\Typically,\,1
could,1
TileLayer,1
shader,1
For,1
overwritten,1
\76,\,1
initialize,1
http://fisnikhasani.com/xbox-360-controller-input-with-c-using-xinput-h-api/,1
loading,1
control,1
Strings,1
Begin,1
display,1
direction,1
in-case,1
'awaiting',1
overriden,1
\TODO,\,1
text,1
Leave,1
parent,1
popping,1
drawn,1
last,1
belonging,1
param),1
After,1
supported,1
rendertexture,1
yet,1
\failed,\,1
contents,1
visit,1
stage,1
objects,1
Dialogue,1
(tentative,1
gamepad,1
necessary,1
Params,1
spawn,1
\null,\,1
succeeded,1
:(colon)],1
memset();,1
\subnodes,\,1
came,1
children's,1
keep,1
pause,1
background,1
more,1
these,1
it's,1
\CCSprite,\,1
marker,1
Scripts,1
cache,1
Change,1
typedef,1
',1
awaiting,1
proceed,1
progress,1
affect,1
interacted,1
variable,1
[inherited,1
cocos2d,1
statements,1
hide,1
zero,1
directional,1
blocks,1
Current,1
\themselves,\,1
camera,1
attempt,1
\time,\,1
part,1
Also,1
absolute,1
visible,1
typically,1
spawnName,1
itself,1
during,1
Operator,1
Player,1
turn,1
failed,1
Make,1
TMX,1
onscreen,1
Blocked,1
left,1
\creation,\,1
typical,1
statement,1
Typically,1
feature),1
inheritance,1
required,1
