Folder,Files,LOC,SLOC-P,SLOC-L,MVG,BLOC,C&SLOC,CLOC,CWORD,HCLOC,HCWORD
Total,46,3091,2361,1579,298,533,3,197,1110,1,1
C:\Users\Guy\Documents\Dysfunctional Systems\cocos2d-x-3.0alpha1\projects\dysfunctional-systems-ep-2\Classes,46,3091,2361,1579,298,533,3,197,1110,1,1
